[{
    "date": "Tuesday, January 7, 2014 5:44 AM",
    "eventtype": "Check-in",
    "lat": 65.5851,
    "lng": 22.1515
}, {
    "date": "Monday, April 6, 2015 2:39 AM",
    "eventtype": "Check-out",
    "lat": 65.5860,
    "lng": 22.1591
}, {
    "date": "Friday, August 7, 2015 9:31 AM",
    "eventtype": "Check-in",
    "lat": 65.5826,
    "lng": 22.1608
}, {
    "date": "Sunday, November 30, 2014 8:13 PM",
    "eventtype": "Check-in",
    "lat": 65.6173,
    "lng": 22.1388
}, {
    "date": "Wednesday, May 27, 2015 10:06 PM",
    "eventtype": "Check-out",
    "lat": 65.6195,
    "lng": 22.1656
}]